%YAML 1.1
%TAG !u! tag:unity3d.com,2011:
--- !u!1 &1147129919423921600
GameObject:
  m_ObjectHideFlags: 0
  m_CorrespondingSourceObject: {fileID: 0}
  m_PrefabInstance: {fileID: 0}
  m_PrefabAsset: {fileID: 0}
  serializedVersion: 6
  m_Component:
  - component: {fileID: 8263932519792618592}
  - component: {fileID: 7409249802361193047}
  m_Layer: 0
  m_Name: GameManager
  m_TagString: Untagged
  m_Icon: {fileID: 419385456094870383, guid: 0000000000000000d000000000000000, type: 0}
  m_NavMeshLayer: 0
  m_StaticEditorFlags: 0
  m_IsActive: 1
--- !u!4 &8263932519792618592
Transform:
  m_ObjectHideFlags: 0
  m_CorrespondingSourceObject: {fileID: 0}
  m_PrefabInstance: {fileID: 0}
  m_PrefabAsset: {fileID: 0}
  m_GameObject: {fileID: 1147129919423921600}
  m_LocalRotation: {x: 0, y: 0, z: 0, w: 1}
  m_LocalPosition: {x: -0.00060999393, y: 0.3414698, z: 0.49939}
  m_LocalScale: {x: 1, y: 1, z: 1}
  m_Children: []
  m_Father: {fileID: 0}
  m_RootOrder: 0
  m_LocalEulerAnglesHint: {x: 0, y: 0, z: 0}
--- !u!114 &7409249802361193047
MonoBehaviour:
  m_ObjectHideFlags: 0
  m_CorrespondingSourceObject: {fileID: 0}
  m_PrefabInstance: {fileID: 0}
  m_PrefabAsset: {fileID: 0}
  m_GameObject: {fileID: 1147129919423921600}
  m_Enabled: 1
  m_EditorHideFlags: 0
  m_Script: {fileID: 11500000, guid: 17d9f8d3577bbba479bcb26260f0a982, type: 3}
  m_Name: 
  m_EditorClassIdentifier: 
  playerCamera: {fileID: 7401837855194515341, guid: f6f2a0084c4132245af0fe4dd9114342,
    type: 3}
  streets: {fileID: 2093517203057700326, guid: 6b58c8558e4ec854d8d57e75a4935002, type: 3}
  player: {fileID: 8157270838724199454, guid: 6ef0d3572fd3cf142a006039639dc02b, type: 3}
  gameInterface: {fileID: 2064130149558035384, guid: 296dd7aaba0d9d24197f213142ec2753,
    type: 3}
