%YAML 1.1
%TAG !u! tag:unity3d.com,2011:
--- !u!1 &7003759379585523994
GameObject:
  m_ObjectHideFlags: 0
  m_CorrespondingSourceObject: {fileID: 0}
  m_PrefabInstance: {fileID: 0}
  m_PrefabAsset: {fileID: 0}
  serializedVersion: 6
  m_Component:
  - component: {fileID: 3370502208767446761}
  m_Layer: 0
  m_Name: Street 0
  m_TagString: Untagged
  m_Icon: {fileID: 0}
  m_NavMeshLayer: 0
  m_StaticEditorFlags: 0
  m_IsActive: 1
--- !u!4 &3370502208767446761
Transform:
  m_ObjectHideFlags: 0
  m_CorrespondingSourceObject: {fileID: 0}
  m_PrefabInstance: {fileID: 0}
  m_PrefabAsset: {fileID: 0}
  m_GameObject: {fileID: 7003759379585523994}
  m_LocalRotation: {x: 0, y: 0, z: 0, w: 1}
  m_LocalPosition: {x: 0, y: 0, z: 0}
  m_LocalScale: {x: 1, y: 1, z: 1}
  m_Children:
  - {fileID: 7891263509966477439}
  m_Father: {fileID: 0}
  m_RootOrder: 0
  m_LocalEulerAnglesHint: {x: 0, y: 0, z: 0}
--- !u!136 &4570330111608476200
CapsuleCollider:
  m_ObjectHideFlags: 0
  m_CorrespondingSourceObject: {fileID: 0}
  m_PrefabInstance: {fileID: 0}
  m_PrefabAsset: {fileID: 0}
  m_GameObject: {fileID: 7891263509966242901}
  m_Material: {fileID: 0}
  m_IsTrigger: 0
  m_Enabled: 1
  m_Radius: 0.020810539
  m_Height: 0.06299309
  m_Direction: 2
  m_Center: {x: 0.000030153653, y: 0.00026653602, z: -0.0062128296}
--- !u!136 &8180167265150400643
CapsuleCollider:
  m_ObjectHideFlags: 0
  m_CorrespondingSourceObject: {fileID: 0}
  m_PrefabInstance: {fileID: 0}
  m_PrefabAsset: {fileID: 0}
  m_GameObject: {fileID: 7891263509966242903}
  m_Material: {fileID: 0}
  m_IsTrigger: 0
  m_Enabled: 1
  m_Radius: 0.020810539
  m_Height: 0.06299309
  m_Direction: 2
  m_Center: {x: 0.000030153653, y: 0.00026653602, z: -0.0062128296}
--- !u!1001 &7891263509966340861
PrefabInstance:
  m_ObjectHideFlags: 0
  serializedVersion: 2
  m_Modification:
    m_TransformParent: {fileID: 3370502208767446761}
    m_Modifications:
    - target: {fileID: 100002, guid: b1002b1fff30aa744ab4e4976685fd0f, type: 3}
      propertyPath: m_Name
      value: Bloque_Edificios04
      objectReference: {fileID: 0}
    - target: {fileID: 100008, guid: b1002b1fff30aa744ab4e4976685fd0f, type: 3}
      propertyPath: m_TagString
      value: Obstacle
      objectReference: {fileID: 0}
    - target: {fileID: 100010, guid: b1002b1fff30aa744ab4e4976685fd0f, type: 3}
      propertyPath: m_TagString
      value: Obstacle
      objectReference: {fileID: 0}
    - target: {fileID: 400002, guid: b1002b1fff30aa744ab4e4976685fd0f, type: 3}
      propertyPath: m_LocalPosition.x
      value: 0
      objectReference: {fileID: 0}
    - target: {fileID: 400002, guid: b1002b1fff30aa744ab4e4976685fd0f, type: 3}
      propertyPath: m_LocalPosition.y
      value: 0
      objectReference: {fileID: 0}
    - target: {fileID: 400002, guid: b1002b1fff30aa744ab4e4976685fd0f, type: 3}
      propertyPath: m_LocalPosition.z
      value: 1.51
      objectReference: {fileID: 0}
    - target: {fileID: 400002, guid: b1002b1fff30aa744ab4e4976685fd0f, type: 3}
      propertyPath: m_LocalRotation.x
      value: 0
      objectReference: {fileID: 0}
    - target: {fileID: 400002, guid: b1002b1fff30aa744ab4e4976685fd0f, type: 3}
      propertyPath: m_LocalRotation.y
      value: 0
      objectReference: {fileID: 0}
    - target: {fileID: 400002, guid: b1002b1fff30aa744ab4e4976685fd0f, type: 3}
      propertyPath: m_LocalRotation.z
      value: 0
      objectReference: {fileID: 0}
    - target: {fileID: 400002, guid: b1002b1fff30aa744ab4e4976685fd0f, type: 3}
      propertyPath: m_LocalRotation.w
      value: 1
      objectReference: {fileID: 0}
    - target: {fileID: 400002, guid: b1002b1fff30aa744ab4e4976685fd0f, type: 3}
      propertyPath: m_RootOrder
      value: 0
      objectReference: {fileID: 0}
    - target: {fileID: 400002, guid: b1002b1fff30aa744ab4e4976685fd0f, type: 3}
      propertyPath: m_LocalEulerAnglesHint.x
      value: 0
      objectReference: {fileID: 0}
    - target: {fileID: 400002, guid: b1002b1fff30aa744ab4e4976685fd0f, type: 3}
      propertyPath: m_LocalEulerAnglesHint.y
      value: 0
      objectReference: {fileID: 0}
    - target: {fileID: 400002, guid: b1002b1fff30aa744ab4e4976685fd0f, type: 3}
      propertyPath: m_LocalEulerAnglesHint.z
      value: 0
      objectReference: {fileID: 0}
    - target: {fileID: 400002, guid: b1002b1fff30aa744ab4e4976685fd0f, type: 3}
      propertyPath: m_LocalScale.x
      value: 0.72
      objectReference: {fileID: 0}
    - target: {fileID: 400002, guid: b1002b1fff30aa744ab4e4976685fd0f, type: 3}
      propertyPath: m_LocalScale.y
      value: 0.72
      objectReference: {fileID: 0}
    - target: {fileID: 400002, guid: b1002b1fff30aa744ab4e4976685fd0f, type: 3}
      propertyPath: m_LocalScale.z
      value: 0.72
      objectReference: {fileID: 0}
    - target: {fileID: 400008, guid: b1002b1fff30aa744ab4e4976685fd0f, type: 3}
      propertyPath: m_LocalPosition.x
      value: 0.7
      objectReference: {fileID: 0}
    - target: {fileID: 400010, guid: b1002b1fff30aa744ab4e4976685fd0f, type: 3}
      propertyPath: m_LocalPosition.x
      value: 0.7
      objectReference: {fileID: 0}
    m_RemovedComponents: []
  m_SourcePrefab: {fileID: 100100000, guid: b1002b1fff30aa744ab4e4976685fd0f, type: 3}
--- !u!4 &7891263509966477439 stripped
Transform:
  m_CorrespondingSourceObject: {fileID: 400002, guid: b1002b1fff30aa744ab4e4976685fd0f,
    type: 3}
  m_PrefabInstance: {fileID: 7891263509966340861}
  m_PrefabAsset: {fileID: 0}
--- !u!1 &7891263509966242901 stripped
GameObject:
  m_CorrespondingSourceObject: {fileID: 100008, guid: b1002b1fff30aa744ab4e4976685fd0f,
    type: 3}
  m_PrefabInstance: {fileID: 7891263509966340861}
  m_PrefabAsset: {fileID: 0}
--- !u!1 &7891263509966242903 stripped
GameObject:
  m_CorrespondingSourceObject: {fileID: 100010, guid: b1002b1fff30aa744ab4e4976685fd0f,
    type: 3}
  m_PrefabInstance: {fileID: 7891263509966340861}
  m_PrefabAsset: {fileID: 0}
